{
  "project_info": {
    "project_number": "511136531449",
    "firebase_url": "https://gruporeigo.firebaseio.com",
    "project_id": "gruporeigo",
    "storage_bucket": "gruporeigo.appspot.com"
  },
  "client": [
    {
      "client_info": {
        "mobilesdk_app_id": "1:511136531449:android:1927d1b9234d218338b328",
        "android_client_info": {
          "package_name": "io.plade.reigo"
        }
      },
      "oauth_client": [
        {
          "client_id": "511136531449-76t3g5aktai8gd76giks7toag14b9eu1.apps.googleusercontent.com",
          "client_type": 3
        }
      ],
      "api_key": [
        {
          "current_key": "AIzaSyAAfBJSKDzsY_dTEMHsiCnVXHfCEgYf5r8"
        }
      ],
      "services": {
        "appinvite_service": {
          "other_platform_oauth_client": [
            {
              "client_id": "511136531449-76t3g5aktai8gd76giks7toag14b9eu1.apps.googleusercontent.com",
              "client_type": 3
            }
          ]
        }
      }
    }
  ],
  "configuration_version": "1"
}